…
```r
life_history_no_nas <- life_history_no_nas %>% 
  mutate(max_life=na_if(max_life, 0))
```

We can also use `miss_var_summary` with `group_by()`. This helps us better evaluate where NA's are in the data.

```r
life_history_no_nas %>%
  group_by(order) %>%
  miss_var_summary(order=T)
```

```
## # A tibble: 204 × 4
## # Groups:   order [17]
##    order        variable     n_miss pct_miss
##    <chr>        <chr>         <int>    <dbl>
##  1 Artiodactyla wean_mass       134    83.2 
##  2 Artiodactyla litters_year     77    47.8 
##  3 Artiodactyla weaning          68    42.2 
##  4 Artiodactyla max_life         62    38.5 
##  5 Artiodactyla afr              32    19.9 
##  6 Artiodactyla gestation        11     6.83
##  7 Artiodactyla litter_size       5     3.11
##  8 Artiodactyla mass              4     2.48
##  9 Artiodactyla family            0     0   
## 10 Artiodactyla genus             0     0   
## # ℹ 194 more rows
```
…
```
## [1]    -9   -99  -999 -9999  9999    66    77    88
```


```r
life_history %>% #going back to the original data
  replace_with_na_all(condition = ~.x %in% c(common_na_strings, common_na_numbers)) %>% 
  mutate(newborn=na_if(newborn, "not measured"))
```

```
## # A tibble: 1,440 × 13
##    order   family genus species   mass gestation newborn weaning wean_mass   afr
##    <chr>   <chr>  <chr> <chr>    <dbl>     <dbl> <chr>     <dbl>     <dbl> <dbl>
##  1 Artiod… Antil… Anti… americ… 4.54e4      8.13 3246.36    3         8900  13.5
##  2 Artiod… Bovid… Addax nasoma… 1.82e5      9.39 5480       6.5         NA  27.3
##  3 Artiod… Bovid… Aepy… melamp… 4.15e4      6.35 5093       5.63     15900  16.7
##  4 Artiod… Bovid… Alce… busela… 1.5 e5      7.9  10166.…    6.5         NA  23.0
##  5 Artiod… Bovid… Ammo… clarkei 2.85e4      6.8  <NA>      NA           NA  NA  
##  6 Artiod… Bovid… Ammo… lervia  5.55e4      5.08 3810       4           NA  14.9
##  7 Artiod… Bovid… Anti… marsup… 3   e4      5.72 3910       4.04        NA  10.2
##  8 Artiod… Bovid… Anti… cervic… 3.75e4      5.5  3846       2.13        NA  20.1
##  9 Artiod… Bovid… Bison bison   4.98e5      8.93 20000     10.7     157500  29.4
## 10 Artiod… Bovid… Bison bonasus 5   e5      9.14 23000.…    6.6         NA  30.0
## # ℹ 1,430 more rows
## # ℹ 3 more variables: max_life <dbl>, litter_size <dbl>, litters_year <dbl>
```
…
```
## Rows: 1440 Columns: 13
## ── Column specification ────────────────────────────────────────────────────────
## Delimiter: ","
## chr (4): order, family, Genus, species
## dbl (9): mass, gestation, newborn, weaning, wean mass, AFR, max. life, litte...
## 
## ℹ Use `spec()` to retrieve the full column specification for this data.
## ℹ Specify the column types or set `show_col_types = FALSE` to quiet this message.
```

```
## # A tibble: 1,440 × 13
##    order   family genus species   mass gestation newborn weaning wean_mass   afr
##    <chr>   <chr>  <chr> <chr>    <dbl>     <dbl>   <dbl>   <dbl>     <dbl> <dbl>
##  1 Artiod… Antil… Anti… americ… 4.54e4      8.13   3246.    3         8900  13.5
##  2 Artiod… Bovid… Addax nasoma… 1.82e5      9.39   5480     6.5         NA  27.3
##  3 Artiod… Bovid… Aepy… melamp… 4.15e4      6.35   5093     5.63     15900  16.7
##  4 Artiod… Bovid… Alce… busela… 1.5 e5      7.9   10167.    6.5         NA  23.0
##  5 Artiod… Bovid… Ammo… clarkei 2.85e4      6.8      NA    NA           NA  NA  
##  6 Artiod… Bovid… Ammo… lervia  5.55e4      5.08   3810     4           NA  14.9
##  7 Artiod… Bovid… Anti… marsup… 3   e4      5.72   3910     4.04        NA  10.2
##  8 Artiod… Bovid… Anti… cervic… 3.75e4      5.5    3846     2.13        NA  20.1
##  9 Artiod… Bovid… Bison bison   4.98e5      8.93  20000    10.7     157500  29.4
## 10 Artiod… Bovid… Bison bonasus 5   e5      9.14  23000.    6.6         NA  30.0
## # ℹ 1,430 more rows
## # ℹ 3 more variables: max_life <dbl>, litter_size <dbl>, litters_year <dbl>
```
…
(3) each value has its own cell?  
  
To fix this problem, we need to reshape the table to long format while keeping track of column names and values. We do this using `pivot_longer()`. Notice that the dimensions of the data frame change.  

```r
heartrate %>% 
  pivot_longer(-patient, #patient will not move
               names_to = "drug", #make a new column called "drug"
               values_to="heartrate" #values moved to a new column called "heartrate"
               )
```

```
## # A tibble: 24 × 3
##    patient  drug  heartrate
##    <chr>    <chr>     <dbl>
##  1 Margaret a            72
##  2 Margaret b            74
##  3 Margaret c            80
##  4 Margaret d            68
##  5 Frank    a            84
##  6 Frank    b            84
##  7 Frank    c            88
##  8 Frank    d            76
##  9 Hawkeye  a            64
## 10 Hawkeye  b            66
## # ℹ 14 more rows
```
…
2. Why are these data untidy?  

3. Use `pivot_longer()` to make the data tidy.  

```r
relig_income %>% 
  pivot_longer(-religion,
               names_to = "income",
               values_to = "total"
  )
```

```
## # A tibble: 180 × 3
##    religion income             total
##    <chr>    <chr>              <dbl>
##  1 Agnostic <$10k                 27
##  2 Agnostic $10-20k               34
##  3 Agnostic $20-30k               60
##  4 Agnostic $30-40k               81
##  5 Agnostic $40-50k               76
##  6 Agnostic $50-75k              137
##  7 Agnostic $75-100k             122
##  8 Agnostic $100-150k            109
##  9 Agnostic >150k                 84
## 10 Agnostic Don't know/refused    96
## # ℹ 170 more rows
```
…
```r
billboard
```

```
## # A tibble: 317 × 79
##    artist     track date.entered   wk1   wk2   wk3   wk4   wk5   wk6   wk7   wk8
##    <chr>      <chr> <date>       <dbl> <dbl> <dbl> <dbl> <dbl> <dbl> <dbl> <dbl>
##  1 2 Pac      Baby… 2000-02-26      87    82    72    77    87    94    99    NA
##  2 2Ge+her    The … 2000-09-02      91    87    92    NA    NA    NA    NA    NA
##  3 3 Doors D… Kryp… 2000-04-08      81    70    68    67    66    57    54    53
##  4 3 Doors D… Loser 2000-10-21      76    76    72    69    67    65    55    59
##  5 504 Boyz   Wobb… 2000-04-15      57    34    25    17    17    31    36    49
##  6 98^0       Give… 2000-08-19      51    39    34    26    26    19     2     2
##  7 A*Teens    Danc… 2000-07-08      97    97    96    95   100    NA    NA    NA
##  8 Aaliyah    I Do… 2000-01-29      84    62    51    41    38    35    35    38
##  9 Aaliyah    Try … 2000-03-18      59    53    38    28    21    18    16    14
## 10 Adams, Yo… Open… 2000-08-26      76    76    74    69    68    67    61    58
## # ℹ 307 more rows
## # ℹ 68 more variables: wk9 <dbl>, wk10 <dbl>, wk11 <dbl>, wk12 <dbl>,
## #   wk13 <dbl>, wk14 <dbl>, wk15 <dbl>, wk16 <dbl>, wk17 <dbl>, wk18 <dbl>,
## #   wk19 <dbl>, wk20 <dbl>, wk21 <dbl>, wk22 <dbl>, wk23 <dbl>, wk24 <dbl>,
## #   wk25 <dbl>, wk26 <dbl>, wk27 <dbl>, wk28 <dbl>, wk29 <dbl>, wk30 <dbl>,
## #   wk31 <dbl>, wk32 <dbl>, wk33 <dbl>, wk34 <dbl>, wk35 <dbl>, wk36 <dbl>,
## #   wk37 <dbl>, wk38 <dbl>, wk39 <dbl>, wk40 <dbl>, wk41 <dbl>, wk42 <dbl>, …
```
Solution 1: specify a range of columns that you want to pivot.

```r
billboard2 <- 
  billboard %>% 
  pivot_longer(wk1:wk76, # a range of columns
               names_to = "week",
               values_to = "rank", 
               values_drop_na = TRUE #this will drop the NA's
               )
billboard2
```

```
## # A tibble: 5,307 × 5
##    artist  track                   date.entered week   rank
##    <chr>   <chr>                   <date>       <chr> <dbl>
##  1 2 Pac   Baby Don't Cry (Keep... 2000-02-26   wk1      87
##  2 2 Pac   Baby Don't Cry (Keep... 2000-02-26   wk2      82
##  3 2 Pac   Baby Don't Cry (Keep... 2000-02-26   wk3      72
##  4 2 Pac   Baby Don't Cry (Keep... 2000-02-26   wk4      77
##  5 2 Pac   Baby Don't Cry (Keep... 2000-02-26   wk5      87
##  6 2 Pac   Baby Don't Cry (Keep... 2000-02-26   wk6      94
##  7 2 Pac   Baby Don't Cry (Keep... 2000-02-26   wk7      99
##  8 2Ge+her The Hardest Part Of ... 2000-09-02   wk1      91
##  9 2Ge+her The Hardest Part Of ... 2000-09-02   wk2      87
## 10 2Ge+her The Hardest Part Of ... 2000-09-02   wk3      92
## # ℹ 5,297 more rows
```
Solution 2: OR, specify columns that you want to stay fixed.

```r
billboard3 <- 
  billboard %>% 
  pivot_longer(-c(artist, track, date.entered), #specific columns to stay fixed
               names_to = "week",
               values_to = "rank",
               values_drop_na = TRUE
               )
billboard3
```

```
## # A tibble: 5,307 × 5
##    artist  track                   date.entered week   rank
##    <chr>   <chr>                   <date>       <chr> <dbl>
##  1 2 Pac   Baby Don't Cry (Keep... 2000-02-26   wk1      87
##  2 2 Pac   Baby Don't Cry (Keep... 2000-02-26   wk2      82
##  3 2 Pac   Baby Don't Cry (Keep... 2000-02-26   wk3      72
##  4 2 Pac   Baby Don't Cry (Keep... 2000-02-26   wk4      77
##  5 2 Pac   Baby Don't Cry (Keep... 2000-02-26   wk5      87
##  6 2 Pac   Baby Don't Cry (Keep... 2000-02-26   wk6      94
##  7 2 Pac   Baby Don't Cry (Keep... 2000-02-26   wk7      99
##  8 2Ge+her The Hardest Part Of ... 2000-09-02   wk1      91
##  9 2Ge+her The Hardest Part Of ... 2000-09-02   wk2      87
## 10 2Ge+her The Hardest Part Of ... 2000-09-02   wk3      92
## # ℹ 5,297 more rows
```

Solution 3: identify columns by a prefix, remove the prefix and all NA's.

```r
billboard %>% 
   pivot_longer(
   cols = starts_with("wk"), #columns that start with "wk"
   names_to = "week",
   names_prefix = "wk",
   values_to = "rank",
   values_drop_na = TRUE)
```

```
## # A tibble: 5,307 × 5
##    artist  track                   date.entered week   rank
##    <chr>   <chr>                   <date>       <chr> <dbl>
##  1 2 Pac   Baby Don't Cry (Keep... 2000-02-26   1        87
##  2 2 Pac   Baby Don't Cry (Keep... 2000-02-26   2        82
##  3 2 Pac   Baby Don't Cry (Keep... 2000-02-26   3        72
##  4 2 Pac   Baby Don't Cry (Keep... 2000-02-26   4        77
##  5 2 Pac   Baby Don't Cry (Keep... 2000-02-26   5        87
##  6 2 Pac   Baby Don't Cry (Keep... 2000-02-26   6        94
##  7 2 Pac   Baby Don't Cry (Keep... 2000-02-26   7        99
##  8 2Ge+her The Hardest Part Of ... 2000-09-02   1        91
##  9 2Ge+her The Hardest Part Of ... 2000-09-02   2        87
## 10 2Ge+her The Hardest Part Of ... 2000-09-02   3        92
## # ℹ 5,297 more rows
```
…
3. Use `pivot_longer()` to make the data tidy. Focus the data only on genotype, water_sched_prog, and greenhouse.  

```r
plant_data %>% 
  pivot_longer(-c(genotype, water_sched_prog, greenhouse),
               names_to = "v1",
               values_to = "v2",
               values_drop_na = T
               )
```

```
## # A tibble: 90 × 5
##    genotype water_sched_prog greenhouse v1       v2
##    <chr>    <chr>            <chr>      <chr> <dbl>
##  1 control  A                A761       day1   21.7
##  2 control  A                A761       day2   19.9
##  3 control  A                A761       day3   20.7
##  4 control  A                A761       day4   19.4
##  5 control  A                A761       day5   20.2
##  6 control  A                A761       day6   19.2
##  7 control  A                A761       day7   20.6
##  8 control  A                A761       day8   19.9
##  9 control  A                A761       day9   19.2
## 10 control  A                A761       day10  20.4
## # ℹ 80 more rows
```
…
`names_sep` helps pull these apart, but we still have "exp" and "rep" to deal with.  

```r
qpcr_untidy %>% 
  pivot_longer(
    exp1_rep1:exp3_rep3,
    names_to= c("experiment", "replicate"),
    names_sep="_",
    values_to="mRNA_expression"
  )
```

```
## # A tibble: 45 × 4
##    gene  experiment replicate mRNA_expression
##    <chr> <chr>      <chr>               <dbl>
##  1 A     exp1       rep1                 21.7
##  2 A     exp1       rep2                 19.8
##  3 A     exp1       rep3                 20.7
##  4 A     exp2       rep1                 18.3
##  5 A     exp2       rep2                 20.4
##  6 A     exp2       rep3                 17.6
##  7 A     exp3       rep1                 20.6
##  8 A     exp3       rep2                 19.9
##  9 A     exp3       rep3                 19.2
## 10 B     exp1       rep1                 24.3
## # ℹ 35 more rows
```
…
## Practice
1. Are these data tidy? Please use `pivot_longer()` to tidy the data.

```r
expenditures %>% 
  pivot_longer(-expenditure, #not moving ependiture
               names_to = "year", # new variable year
               values_to = "bn_dollars") #moving values into bn_dollars
```

```
## # A tibble: 25 × 3
##    expenditure         year  bn_dollars
##    <chr>               <chr>      <dbl>
##  1 Food and Tobacco    1940        22.2
##  2 Food and Tobacco    1945        44.5
##  3 Food and Tobacco    1950        59.6
##  4 Food and Tobacco    1955        73.2
##  5 Food and Tobacco    1960        86.8
##  6 Household Operation 1940        10.5
##  7 Household Operation 1945        15.5
##  8 Household Operation 1950        29  
##  9 Household Operation 1955        36.5
## 10 Household Operation 1960        46.2
## # ℹ 15 more rows
```
…
## Practice
1. Re-examine `heartrate2`. Use `separate()` for the sexes, `pivot_longer()` to tidy, and `arrange()` to organize by patient and drug. Store this as a new object `heartrate3`.  

```r
heartrate3 <- heartrate2 %>% 
  separate(patient, into=c("patient", "sex"), sep="_") %>% 
  pivot_longer(-c(patient, sex),
               names_to = "drug",
               values_to = "heartrate")
heartrate3
```

```
## # A tibble: 24 × 4
##    patient  sex   drug  heartrate
##    <chr>    <chr> <chr>     <dbl>
##  1 Margaret f     a            72
##  2 Margaret f     b            74
##  3 Margaret f     c            80
##  4 Margaret f     d            68
##  5 Frank    m     a            84
##  6 Frank    m     b            84
##  7 Frank    m     c            88
##  8 Frank    m     d            76
##  9 Hawkeye  m     a            64
## 10 Hawkeye  m     b            66
## # ℹ 14 more rows
```

2. `unite()` is the opposite of separate(). Its syntax is straightforward. You only need to give a new column name and then list the columns to combine with a separation character.  Give it a try below by recombining patient and sex from `heartrate3`.  

```r
heartrate3 %>% 
  unite(patient_sex, "patient", "sex", sep=" ")
```

```
## # A tibble: 24 × 3
##    patient_sex drug  heartrate
##    <chr>       <chr>     <dbl>
##  1 Margaret f  a            72
##  2 Margaret f  b            74
##  3 Margaret f  c            80
##  4 Margaret f  d            68
##  5 Frank m     a            84
##  6 Frank m     b            84
##  7 Frank m     c            88
##  8 Frank m     d            76
##  9 Hawkeye m   a            64
## 10 Hawkeye m   b            66
## # ℹ 14 more rows
```
…
```r
beachbugs
```

```
## # A tibble: 66 × 3
##     year site                    buglevels
##    <dbl> <chr>                       <dbl>
##  1  2013 Bondi Beach                 32.2 
##  2  2013 Bronte Beach                26.8 
##  3  2013 Clovelly Beach               9.28
##  4  2013 Coogee Beach                39.7 
##  5  2013 Gordons Bay (East)          24.8 
##  6  2013 Little Bay Beach           122.  
##  7  2013 Malabar Beach              101.  
##  8  2013 Maroubra Beach              47.1 
##  9  2013 South Maroubra Beach        39.3 
## 10  2013 South Maroubra Rockpool     96.4 
## # ℹ 56 more rows
```
…
3. Now, use `pivot_longer` to transform them back to long!

```r
beachbugs_wide %>% 
  pivot_longer(-year,
               names_to = "site",
               values_to = "buglevels")
```

```
## # A tibble: 66 × 3
##     year site                    buglevels
##    <dbl> <chr>                       <dbl>
##  1  2013 Bondi Beach                 32.2 
##  2  2013 Bronte Beach                26.8 
##  3  2013 Clovelly Beach               9.28
##  4  2013 Coogee Beach                39.7 
##  5  2013 Gordons Bay (East)          24.8 
##  6  2013 Little Bay Beach           122.  
##  7  2013 Malabar Beach              101.  
##  8  2013 Maroubra Beach              47.1 
##  9  2013 South Maroubra Beach        39.3 
## 10  2013 South Maroubra Rockpool     96.4 
## # ℹ 56 more rows
```
…
## Practice
1. Filter the `homerange` data to include `mammals` only.

```r
homerange %>% 
  filter(class=="mammalia")
```

```
## # A tibble: 238 × 24
##    taxon   common.name      class order family genus species primarymethod N    
##    <chr>   <chr>            <chr> <chr> <chr>  <chr> <chr>   <chr>         <chr>
##  1 mammals giant golden mo… mamm… afro… chrys… chry… trevel… telemetry*    <NA> 
##  2 mammals Grant's golden … mamm… afro… chrys… erem… granti  telemetry*    <NA> 
##  3 mammals pronghorn        mamm… arti… antil… anti… americ… telemetry*    <NA> 
##  4 mammals impala           mamm… arti… bovid… aepy… melamp… telemetry*    <NA> 
##  5 mammals hartebeest       mamm… arti… bovid… alce… busela… telemetry*    <NA> 
##  6 mammals barbary sheep    mamm… arti… bovid… ammo… lervia  telemetry*    <NA> 
##  7 mammals American bison   mamm… arti… bovid… bison bison   telemetry*    <NA> 
##  8 mammals European bison   mamm… arti… bovid… bison bonasus telemetry*    <NA> 
##  9 mammals goat             mamm… arti… bovid… capra hircus  telemetry*    <NA> 
## 10 mammals Spanish ibex     mamm… arti… bovid… capra pyrena… telemetry*    <NA> 
## # ℹ 228 more rows
## # ℹ 15 more variables: mean.mass.g <dbl>, log10.mass <dbl>,
## #   alternative.mass.reference <chr>, mean.hra.m2 <dbl>, log10.hra <dbl>,
## #   hra.reference <chr>, realm <chr>, thermoregulation <chr>, locomotion <chr>,
## #   trophic.guild <chr>, dimension <dbl>, preymass <dbl>, log10.preymass <dbl>,
## #   PPMR <dbl>, prey.size.reference <chr>
```
…
## Review
Now that you have been introduced to `ggplot`, let's practice a few more plot types. Remember that plots are built in layers: **plot= data + geom_ + aesthetics**. We have to specify each of these in order for a plot to be produced. If you get stuck, it is often helpful to stop and make a quick sketch of what you want or expect to see on a piece of scratch paper.  

Let's review using the `penguins` data. First, get an idea of the structure: Are the data tidy? Are there NA's? Are the variables discrete, categorical, or continuous?

```r
penguins
```

```
## # A tibble: 344 × 8
##    species island    bill_length_mm bill_depth_mm flipper_length_mm body_mass_g
##    <fct>   <fct>              <dbl>         <dbl>             <int>       <int>
##  1 Adelie  Torgersen           39.1          18.7               181        3750
##  2 Adelie  Torgersen           39.5          17.4               186        3800
##  3 Adelie  Torgersen           40.3          18                 195        3250
##  4 Adelie  Torgersen           NA            NA                  NA          NA
##  5 Adelie  Torgersen           36.7          19.3               193        3450
##  6 Adelie  Torgersen           39.3          20.6               190        3650
##  7 Adelie  Torgersen           38.9          17.8               181        3625
##  8 Adelie  Torgersen           39.2          19.6               195        4675
##  9 Adelie  Torgersen           34.1          18.1               193        3475
## 10 Adelie  Torgersen           42            20.2               190        4250
## # ℹ 334 more rows
## # ℹ 2 more variables: sex <fct>, year <int>
```
…
