…
2. How many genera and species are represented in the data? What are the total number of observations? Which species is most/ least frequently sampled in the study?

Genera

```r
deserts %>% 
  count(genus,sort=T)
```

```
## # A tibble: 26 × 2
##    genus                n
##    <chr>            <int>
##  1 Dipodomys        16167
##  2 Chaetodipus       6029
##  3 Onychomys         3267
##  4 Reithrodontomys   2694
##  5 Peromyscus        2234
##  6 Perognathus       1629
##  7 Neotoma           1252
##  8 Ammospermophilus   437
##  9 Amphispiza         303
## 10 Spermophilus       249
## # ℹ 16 more rows
```
Species
Merriami is the most observed species
Clariki, scutalatus, tereticaudus, tigris, uniparens, viridis are the least observed species.

```r
deserts %>% 
  count(species,sort=T) %>% 
  arrange(desc(n))
```

```
## # A tibble: 40 × 2
##    species          n
##    <chr>        <int>
##  1 merriami     10596
##  2 penicillatus  3123
##  3 ordii         3027
##  4 baileyi       2891
##  5 megalotis     2609
##  6 spectabilis   2504
##  7 torridus      2249
##  8 flavus        1597
##  9 eremicus      1299
## 10 albigula      1252
## # ℹ 30 more rows
```
…
5. What is the range of weight for each species included in the study? Remove any observations of weight that are NA so they do not show up in the plot.

```r
new_des <- deserts %>% 
  filter(weight != "NA")
new_des
```

```
## # A tibble: 32,283 × 13
##    record_id month   day  year plot_id species_id sex   hindfoot_length weight
##        <dbl> <dbl> <dbl> <dbl>   <dbl> <chr>      <chr>           <dbl>  <dbl>
##  1        63     8    19  1977       3 DM         M                  35     40
##  2        64     8    19  1977       7 DM         M                  37     48
##  3        65     8    19  1977       4 DM         F                  34     29
##  4        66     8    19  1977       4 DM         F                  35     46
##  5        67     8    19  1977       7 DM         M                  35     36
##  6        68     8    19  1977       8 DO         F                  32     52
##  7        69     8    19  1977       2 PF         M                  15      8
##  8        70     8    19  1977       3 OX         F                  21     22
##  9        71     8    19  1977       7 DM         F                  36     35
## 10        74     8    19  1977       8 PF         M                  12      7
## # ℹ 32,273 more rows
## # ℹ 4 more variables: genus <chr>, species <chr>, taxa <chr>, plot_type <chr>
```
…
7. [Dipodomys merriami](https://en.wikipedia.org/wiki/Merriam's_kangaroo_rat) is the most frequently sampled animal in the study. How have the number of observations of this species changed over the years included in the study?

The number of observations increase.

```r
deserts %>% 
  filter(species_id == "DM") %>% 
  count(year)
```

```
## # A tibble: 26 × 2
##     year     n
##    <dbl> <int>
##  1  1977   264
##  2  1978   389
##  3  1979   209
##  4  1980   493
##  5  1981   559
##  6  1982   609
##  7  1983   528
##  8  1984   396
##  9  1985   667
## 10  1986   406
## # ℹ 16 more rows
```
…
9. Which two species have, on average, the highest weight? Once you have identified them, make a new column that is a ratio of `weight` to `hindfoot_length`. Make a plot that shows the range of this new ratio and fill by sex.

Albigula and spectabilis are the 2 species that have the highest average weight.

```r
deserts %>% 
  group_by(species) %>% 
  summarize(avgweight = mean(weight, na.rm=T)) %>% 
  arrange(desc(avgweight))
```

```
## # A tibble: 40 × 2
##    species      avgweight
##    <chr>            <dbl>
##  1 albigula         159. 
##  2 spectabilis      120. 
##  3 spilosoma         93.5
##  4 hispidus          65.6
##  5 fulviventer       58.9
##  6 ochrognathus      55.4
##  7 ordii             48.9
##  8 merriami          43.2
##  9 baileyi           31.7
## 10 leucogaster       31.6
## # ℹ 30 more rows
```
…
