…
5. Pivot the data back so that the dates are data and not column names.

```r
syndneybeaches_wide %>% 
  pivot_longer(-site,
               names_to = "date",
               values_to = "enterococci_cfu_100ml")
```

```
## # A tibble: 3,784 × 3
##    site           date       enterococci_cfu_100ml
##    <chr>          <chr>                      <dbl>
##  1 Clovelly Beach 02/01/2013                    19
##  2 Clovelly Beach 06/01/2013                     3
##  3 Clovelly Beach 12/01/2013                     2
##  4 Clovelly Beach 18/01/2013                    13
##  5 Clovelly Beach 30/01/2013                     8
##  6 Clovelly Beach 05/02/2013                     7
##  7 Clovelly Beach 11/02/2013                    11
##  8 Clovelly Beach 23/02/2013                    97
##  9 Clovelly Beach 07/03/2013                     3
## 10 Clovelly Beach 25/03/2013                     0
## # ℹ 3,774 more rows
```


6. We haven't dealt much with dates yet, but separate the date into columns day, month, and year. Do this on the `sydneybeaches_long` data.


```r
syndneybeaches_long %>% 
  separate(date, into = c("day", "month","year"), sep = "/")
```

```
## # A tibble: 3,690 × 5
##    site           day   month year  enterococci_cfu_100ml
##    <chr>          <chr> <chr> <chr>                 <dbl>
##  1 Clovelly Beach 02    01    2013                     19
##  2 Clovelly Beach 06    01    2013                      3
##  3 Clovelly Beach 12    01    2013                      2
##  4 Clovelly Beach 18    01    2013                     13
##  5 Clovelly Beach 30    01    2013                      8
##  6 Clovelly Beach 05    02    2013                      7
##  7 Clovelly Beach 11    02    2013                     11
##  8 Clovelly Beach 23    02    2013                     97
##  9 Clovelly Beach 07    03    2013                      3
## 10 Clovelly Beach 25    03    2013                      0
## # ℹ 3,680 more rows
```
…
```
## `summarise()` has grouped output by 'site'. You can override using the
## `.groups` argument.
```

```
## # A tibble: 66 × 3
## # Groups:   site [11]
##    site                    year  new_enter
##    <chr>                   <chr>     <dbl>
##  1 Little Bay Beach        2013      122. 
##  2 South Maroubra Rockpool 2018      112. 
##  3 Malabar Beach           2013      101. 
##  4 South Maroubra Rockpool 2013       96.4
##  5 Malabar Beach           2016       91.0
##  6 Malabar Beach           2015       66.9
##  7 Bronte Beach            2016       61.3
##  8 Coogee Beach            2016       59.5
##  9 South Maroubra Rockpool 2016       59.3
## 10 Little Bay Beach        2018       59.1
## # ℹ 56 more rows
```
…
