…
```r
miss_var_summary(global_sharks)
```

```
## # A tibble: 21 × 3
##    variable n_miss pct_miss
##    <chr>     <int>    <dbl>
##  1 time       3518    51.1 
##  2 species    3118    45.3 
##  3 age        2982    43.3 
##  4 activity    586     8.51
##  5 sex         572     8.30
##  6 location    565     8.20
##  7 area        481     6.98
##  8 date        305     4.43
##  9 name        220     3.19
## 10 year        132     1.92
## # ℹ 11 more rows
```


2. (3 points) Are there any "hotspots" for shark incidents? Make a plot that shows the total number of incidents for the top 10 countries? Which country has the highest number of incidents?


```r
global_sharks %>% 
  count(country) %>% 
  arrange(desc(n))
```

```
## # A tibble: 216 × 2
##    country              n
##    <chr>            <int>
##  1 USA               2522
##  2 AUSTRALIA         1464
##  3 SOUTH AFRICA       596
##  4 NEW ZEALAND        142
##  5 PAPUA NEW GUINEA   136
##  6 BAHAMAS            132
##  7 BRAZIL             122
##  8 MEXICO             100
##  9 ITALY               72
## 10 FIJI                67
## # ℹ 206 more rows
```
…
4. (3 points) Which activity is associated with the highest number of incidents? Make a plot that compares the top 5 riskiest activities. "NA" should not be classified as an activity.

Surfing has the highest number of incidents

```r
global_sharks %>% 
  filter(activity != "NA") %>% 
  count(activity) %>% 
  arrange(desc(n))
```

```
## # A tibble: 1,553 × 2
##    activity         n
##    <chr>        <int>
##  1 Surfing       1112
##  2 Swimming      1009
##  3 Fishing        498
##  4 Spearfishing   387
##  5 Wading         171
##  6 Bathing        166
##  7 Diving         145
##  8 Snorkeling     127
##  9 Standing       115
## 10 Scuba diving    83
## # ℹ 1,543 more rows
```
…
```r
white_shark <- global_sharks %>% 
  filter(str_detect(species, pattern = ("White")))
```


```r
white_shark %>% 
  count(country) %>% 
  arrange(desc(n))
```

```
## # A tibble: 36 × 2
##    country          n
##    <chr>        <int>
##  1 USA            151
##  2 AUSTRALIA      135
##  3 SOUTH AFRICA   124
##  4 NEW ZEALAND     17
##  5 ITALY           16
##  6 CROATIA          9
##  7 GREECE           4
##  8 CHILE            3
##  9 BAHAMAS          2
## 10 CANADA           2
## # ℹ 26 more rows
```
…
