…
3. (3 points) Are there any "hotspots" for shark incidents in California? Make a plot that shows the total number of incidents per county. Which county has the highest number of incidents?

Yes there are hotspots for shark incident and San Diego has the highest number of incidents.

```r
new_sh%>% 
  filter(incident_num != "NA") %>% 
  count(county, sort=T) %>% 
  arrange(desc(n))
```

```
## # A tibble: 21 × 2
##    county              n
##    <chr>           <int>
##  1 San Diego          23
##  2 Santa Barbara      19
##  3 Humboldt           18
##  4 San Mateo          18
##  5 Marin              16
##  6 Monterey           15
##  7 Santa Cruz         15
##  8 Sonoma             15
##  9 San Luis Obispo    14
## 10 Los Angeles         9
## # ℹ 11 more rows
```
…
