…
2. Notice that we have some neutral superheros! Who are they? List their names below.  

```r
superhero_info %>% 
  select(name, alignment) %>% 
  filter(alignment =="neutral")
```

```
## # A tibble: 24 × 2
##    name         alignment
##    <chr>        <chr>    
##  1 Bizarro      neutral  
##  2 Black Flash  neutral  
##  3 Captain Cold neutral  
##  4 Copycat      neutral  
##  5 Deadpool     neutral  
##  6 Deathstroke  neutral  
##  7 Etrigan      neutral  
##  8 Galactus     neutral  
##  9 Gladiator    neutral  
## 10 Indigo       neutral  
## # ℹ 14 more rows
```


## `superhero_info`
3. Let's say we are only interested in the variables name, alignment, and "race". How would you isolate these variables from `superhero_info`?

```r
superhero_info %>% 
  select(name, alignment, race)
```

```
## # A tibble: 734 × 3
##    name          alignment race             
##    <chr>         <chr>     <chr>            
##  1 A-Bomb        good      Human            
##  2 Abe Sapien    good      Icthyo Sapien    
##  3 Abin Sur      good      Ungaran          
##  4 Abomination   bad       Human / Radiation
##  5 Abraxas       bad       Cosmic Entity    
##  6 Absorbing Man bad       Human            
##  7 Adam Monroe   good      <NA>             
##  8 Adam Strange  good      Human            
##  9 Agent 13      good      <NA>             
## 10 Agent Bob     good      Human            
## # ℹ 724 more rows
```


## Not Human
4. List all of the superheros that are not human.

```r
superhero_info %>% 
  filter(race!="Human")
```

```
## # A tibble: 222 × 10
##    name  gender eye_color race  hair_color height publisher skin_color alignment
##    <chr> <chr>  <chr>     <chr> <chr>       <dbl> <chr>     <chr>      <chr>    
##  1 Abe … Male   blue      Icth… No Hair       191 Dark Hor… blue       good     
##  2 Abin… Male   blue      Unga… No Hair       185 DC Comics red        good     
##  3 Abom… Male   green     Huma… No Hair       203 Marvel C… <NA>       bad      
##  4 Abra… Male   blue      Cosm… Black          NA Marvel C… <NA>       bad      
##  5 Ajax  Male   brown     Cybo… Black         193 Marvel C… <NA>       bad      
##  6 Alien Male   <NA>      Xeno… No Hair       244 Dark Hor… black      bad      
##  7 Amazo Male   red       Andr… <NA>          257 DC Comics <NA>       bad      
##  8 Angel Male   <NA>      Vamp… <NA>           NA Dark Hor… <NA>       good     
##  9 Ange… Female yellow    Muta… Black         165 Marvel C… <NA>       good     
## 10 Anti… Male   yellow    God … No Hair        61 DC Comics <NA>       bad      
## # ℹ 212 more rows
## # ℹ 1 more variable: weight <dbl>
```
…
8. Among the bad guys, who are the male humans over 200 inches in height?

```r
bad_guy %>% 
  filter(height > 200)
```

```
## # A tibble: 25 × 10
##    name  gender eye_color race  hair_color height publisher skin_color alignment
##    <chr> <chr>  <chr>     <chr> <chr>       <dbl> <chr>     <chr>      <chr>    
##  1 Abom… Male   green     Huma… No Hair       203 Marvel C… <NA>       bad      
##  2 Alien Male   <NA>      Xeno… No Hair       244 Dark Hor… black      bad      
##  3 Amazo Male   red       Andr… <NA>          257 DC Comics <NA>       bad      
##  4 Apoc… Male   red       Muta… Black         213 Marvel C… grey       bad      
##  5 Bane  Male   <NA>      Human <NA>          203 DC Comics <NA>       bad      
##  6 Bloo… Female blue      Human Brown         218 Marvel C… <NA>       bad      
##  7 Dark… Male   red       New … No Hair       267 DC Comics grey       bad      
##  8 Doct… Male   brown     Human Brown         201 Marvel C… <NA>       bad      
##  9 Doct… Male   brown     <NA>  Brown         201 Marvel C… <NA>       bad      
## 10 Doom… Male   red       Alien White         244 DC Comics <NA>       bad      
## # ℹ 15 more rows
## # ℹ 1 more variable: weight <dbl>
```
…
11. Let's make a new variable that is the ratio of height to weight. Call this variable `height_weight_ratio`.    

```r
superhero_info %>% 
  select(name, height, weight) %>% 
  mutate(height_weight_ratio = height / weight) %>% 
  arrange(height_weight_ratio)
```

```
## # A tibble: 734 × 4
##    name        height weight height_weight_ratio
##    <chr>        <dbl>  <dbl>               <dbl>
##  1 Giganta       62.5    630              0.0992
##  2 Utgard-Loki   15.2     58              0.262 
##  3 Darkseid     267      817              0.327 
##  4 Juggernaut   287      855              0.336 
##  5 Red Hulk     213      630              0.338 
##  6 Sasquatch    305      900              0.339 
##  7 Hulk         244      630              0.387 
##  8 Bloodaxe     218      495              0.440 
##  9 Thanos       201      443              0.454 
## 10 A-Bomb       203      441              0.460 
## # ℹ 724 more rows
```


12. Who has the highest height to weight ratio?  

```r
superhero_info %>% 
  select(name, height, weight) %>% 
  mutate(height_weight_ratio = height / weight) %>% 
  arrange(desc(height_weight_ratio)) #highest to lowest
```

```
## # A tibble: 734 × 4
##    name            height weight height_weight_ratio
##    <chr>            <dbl>  <dbl>               <dbl>
##  1 Groot              701      4              175.  
##  2 Galactus           876     16               54.8 
##  3 Fin Fang Foom      975     18               54.2 
##  4 Longshot           188     36                5.22
##  5 Jack-Jack           71     14                5.07
##  6 Rocket Raccoon     122     25                4.88
##  7 Dash               122     27                4.52
##  8 Howard the Duck     79     18                4.39
##  9 Swarm              196     47                4.17
## 10 Yoda                66     17                3.88
## # ℹ 724 more rows
```
…
13. How many superheros have a combination of agility, stealth, super_strength, stamina?

```r
superhero_powers %>% 
  select(hero_names, Agility, Stealth, `Super Strength`, Stamina) %>% 
  filter(Agility == "TRUE" & Stealth == "TRUE", `Super Strength`=="TRUE", Stamina =="TRUE")
```

```
## # A tibble: 40 × 5
##    hero_names  Agility Stealth `Super Strength` Stamina
##    <chr>       <lgl>   <lgl>   <lgl>            <lgl>  
##  1 Alex Mercer TRUE    TRUE    TRUE             TRUE   
##  2 Angel       TRUE    TRUE    TRUE             TRUE   
##  3 Ant-Man II  TRUE    TRUE    TRUE             TRUE   
##  4 Aquaman     TRUE    TRUE    TRUE             TRUE   
##  5 Batman      TRUE    TRUE    TRUE             TRUE   
##  6 Black Flash TRUE    TRUE    TRUE             TRUE   
##  7 Black Manta TRUE    TRUE    TRUE             TRUE   
##  8 Brundlefly  TRUE    TRUE    TRUE             TRUE   
##  9 Buffy       TRUE    TRUE    TRUE             TRUE   
## 10 Cable       TRUE    TRUE    TRUE             TRUE   
## # ℹ 30 more rows
```
…
